<?xml version="1.0" encoding="UTF-8" standalone="no"?>
<svg width="20px" height="25px" viewBox="0 0 20 25" version="1.1" xmlns="http://www.w3.org/2000/svg" xmlns:xlink="http://www.w3.org/1999/xlink">
    <!-- Generator: Sketch 49.3 (51167) - http://www.bohemiancoding.com/sketch -->
    <title>785218</title>
    <desc>Created with Sketch.</desc>
    <defs></defs>
    <g id="People" stroke="none" stroke-width="1" fill="none" fill-rule="evenodd">
        <g transform="translate(-735.000000, -980.000000)" fill="#5D97F8" fill-rule="nonzero" id="785218">
            <g transform="translate(735.000000, 980.000000)">
                <path d="M19.9837649,13.8803114 L19.8757539,11.9541694 L18.699713,13.4835197 C18.6060748,13.6052642 18.4067175,13.8206327 18.1522087,14.016904 C18.2527707,13.6837537 18.3425412,13.3038152 18.4018947,12.8847274 C18.6073163,11.4334369 18.4793934,9.20598896 16.7040869,6.83602832 L15.9591831,5.8416379 L15.4710801,6.98417473 C14.9080569,8.30207146 13.9970777,8.96326374 13.1504181,8.66854644 C12.4986272,8.44176737 11.9688382,7.69592681 11.6970438,6.62213984 C11.4435377,5.62058798 11.2961805,3.85815653 12.0343993,1.14941182 L12.3476409,0 L11.1852566,0.261822405 C7.26424509,1.14497172 4.62208067,3.92905483 3.54426209,8.3130046 C3.09120775,10.1558352 3.00587806,11.9017476 3.01857962,13.082622 C2.09212933,12.3337259 1.62947718,11.6766395 1.61734862,11.6592611 L0.734876303,10.3629442 L0.332914723,11.8807884 C0.111974329,12.715049 0,13.5780985 0,14.44597 C0,19.9179342 4.41928537,24.3764585 9.87661336,24.4428689 C9.91763082,24.4439193 9.95874379,24.4444444 10,24.4444444 C10.0412562,24.4444444 10.0823692,24.4439193 10.1233866,24.4428689 C15.5807624,24.3764585 20,19.9179342 20,14.44597 C20,14.2628758 19.9945565,14.0725246 19.9837649,13.8803114 Z M10.0000478,23.0109143 C8.15039418,23.0109143 6.64564064,21.5063903 6.64564064,19.6570666 C6.64564064,16.4297379 8.17207279,14.9839855 9.36191345,14.3472376 C9.21030641,15.1666023 9.34472336,15.9429984 9.59727442,16.5210702 C9.97368961,17.3825919 10.6453446,17.9469137 11.3940207,18.0305594 C11.6881145,18.0633111 12.1803718,18.0379596 12.696361,17.6625566 C13.1197624,18.2355199 13.3544071,18.9344769 13.3544071,19.6570666 C13.3544071,21.506438 11.8496058,23.0109143 10.0000478,23.0109143 Z M14.2350172,21.888525 C14.5878437,21.2217945 14.7881083,20.4623949 14.7881083,19.6570666 C14.7881083,18.2998775 14.208468,17.0011256 13.1978818,16.0939139 L12.6099808,15.5662109 L12.1416463,16.2023859 C12.022414,16.3643778 11.7871962,16.6325977 11.5533633,16.6060049 C11.3679013,16.5852844 11.0973962,16.3735444 10.9111702,15.9472475 C10.6536531,15.3579561 10.6014144,14.4262999 11.2267516,13.5790533 L12.2190972,12.2344683 L10.5608267,12.4422457 C10.5049111,12.4492639 9.17626049,12.6251967 7.85878342,13.6152425 C5.67129685,15.2590327 5.21208272,17.8080772 5.21208272,19.6570666 C5.21208272,20.4625859 5.41239501,21.2221287 5.76541259,21.8889546 C3.18030971,20.41279 1.43389217,17.6295663 1.43389217,14.4459223 C1.43389217,14.1743603 1.44668924,13.903419 1.47209237,13.634101 C1.95556362,14.0920992 2.61098351,14.6255313 3.44541908,15.1205304 L4.69107978,15.8589708 L4.52314216,14.4205231 C4.51989514,14.3925934 4.20588952,11.5950945 4.94568409,8.61879827 C5.79157972,5.21525023 7.61057763,2.99152628 10.3607531,1.99231382 C9.97722313,3.88589519 9.95697703,5.59003248 10.3073206,6.97390999 C10.6995411,8.5232646 11.5641548,9.63443431 12.6794574,10.0223936 C13.4547781,10.2920936 14.290312,10.1918334 15.032494,9.74013723 C15.4597155,9.48012905 15.846206,9.11007335 16.1784522,8.64677565 C16.8961862,9.9282445 17.1692699,11.2611803 16.9909227,12.6216637 C16.8222211,13.9085753 16.2924798,14.7493288 16.2888985,14.7549625 L15.6756421,15.6956421 L16.7872201,15.855772 C17.346853,15.9363621 17.9312683,15.8133285 18.5020747,15.4983204 C18.164958,18.2359019 16.5306103,20.5775032 14.2350172,21.888525 Z" id="Shape"></path>
            </g>
        </g>
    </g>
</svg>