<?xml version="1.0" encoding="UTF-8" standalone="no"?>
<svg width="47px" height="40px" viewBox="0 0 47 40" version="1.1" xmlns="http://www.w3.org/2000/svg" xmlns:xlink="http://www.w3.org/1999/xlink">
    <!-- Generator: Sketch 49.3 (51167) - http://www.bohemiancoding.com/sketch -->
    <title>1817640</title>
    <desc>Created with Sketch.</desc>
    <defs></defs>
    <g id="Technology" stroke="none" stroke-width="1" fill="none" fill-rule="evenodd">
        <g transform="translate(-975.000000, -3645.000000)" fill="#377FF8" fill-rule="nonzero" id="1817640">
            <g transform="translate(975.000000, 3645.000000)">
                <path d="M27.1894995,15.1342551 C25.7972464,15.1342551 24.461266,15.619287 23.4003656,16.4776622 C22.3394653,15.619287 21.0034849,15.1342551 19.6112317,15.1342551 C16.2919904,15.1342551 13.5911792,17.834495 13.5911792,21.1537363 C13.5911792,22.6491087 14.1436243,24.0830668 15.1453953,25.1908135 L23.4003656,34.3307244 L31.654479,25.1913849 C32.657107,24.0830668 33.2095521,22.6491087 33.2095521,21.1537363 C33.2095521,17.834495 30.5087408,15.1342551 27.1894995,15.1342551 Z M29.6203725,23.3526622 L23.4003656,30.2396595 L17.1795019,23.3518053 C16.6339122,22.7488003 16.3334095,21.9684072 16.3334095,21.1543076 C16.3334095,19.3467207 17.8039305,17.8764854 19.6112317,17.8764854 C20.6695612,17.8764854 21.6687614,18.3920818 22.283478,19.2555987 L23.4003656,20.8235261 L24.5172532,19.2553131 C25.1319699,18.3920818 26.1314556,17.8759141 27.1894995,17.8759141 C28.9968007,17.8759141 30.4673218,19.3464351 30.4673218,21.1537363 C30.4673218,21.9684072 30.166819,22.7488003 29.6203725,23.3526622 Z" id="Shape"></path>
                <path d="M0,0.0182815356 L0,39.9634369 L46.8007313,39.9634369 L46.8007313,0.0182815356 L0,0.0182815356 Z M44.0585009,2.76051188 L44.0585009,9.14219605 L2.74223035,9.14219605 L2.74223035,2.76051188 L44.0585009,2.76051188 Z M2.74223035,37.2212066 L2.74223035,11.8844264 L44.0585009,11.8844264 L44.0585009,37.2212066 L2.74223035,37.2212066 Z" id="Shape"></path>
                <polygon id="Shape" points="5.05770106 4.57181214 7.79993141 4.57181214 7.79993141 7.31404249 5.05770106 7.31404249"></polygon>
                <polygon id="Shape" points="9.65893514 4.57181214 12.4011655 4.57181214 12.4011655 7.31404249 9.65893514 7.31404249"></polygon>
                <polygon id="Shape" points="14.2595978 4.57181214 17.0018282 4.57181214 17.0018282 7.31404249 14.2595978 7.31404249"></polygon>
            </g>
        </g>
    </g>
</svg>